id,name,model_id/id,group_id/id,perm_read,perm_write,perm_create,perm_unlink
fleet_fine_model_access_right_user,fleet_fine_model_access_right,model_fleet_fine,fleet.group_fleet_user,1,0,0,0
fleet_fine_model_access_right,fleet_fine_model_access_right,model_fleet_fine,fleet.group_fleet_manager,1,1,1,1
